pipelined/outputs/lui,.vcd
$date
	Mon Dec  1 17:21:39 2025
$end
$version
	Icarus Verilog
$end
$timescale
	1s
$end
$scope module tb_v2 $end
$var wire 1 ! halt $end
$var reg 1 " clk $end
$var reg 1 # exit $end
$var reg 640 $ mem_in_fname [639:0] $end
$var reg 640 % mem_out_fname [639:0] $end
$var reg 640 & regs_in_fname [639:0] $end
$var reg 640 ' regs_out_fname [639:0] $end
$var reg 1 ( rst $end
$var reg 640 ) signal_dump_fname [639:0] $end
$var integer 32 * cycle [31:0] $end
$scope module CPU $end
$var wire 3 + BranchFunct3_ID [2:0] $end
$var wire 32 , DataAddr [31:0] $end
$var wire 1 - EXMEM_WE $end
$var wire 1 . EX_branch_taken $end
$var wire 1 / EX_do_redirect $end
$var wire 32 0 EX_jalr_target [31:0] $end
$var wire 32 1 EX_opA [31:0] $end
$var wire 1 2 EX_useImmI $end
$var wire 1 3 IDEX_WE $end
$var wire 1 4 IDEX_flush $end
$var wire 32 5 ID_IR [31:0] $end
$var wire 32 6 ID_PC [31:0] $end
$var wire 1 7 IFID_WE $end
$var wire 1 8 IFID_flush $end
$var wire 2 9 MemSize [1:0] $end
$var wire 1 : MemWrEn $end
$var wire 1 ; PC_WE $end
$var wire 1 < RWrEn_WB $end
$var wire 32 = RWrdata_WB [31:0] $end
$var wire 1 > RegWrite_ID $end
$var wire 32 ? StoreData [31:0] $end
$var wire 1 @ bad_op_ID $end
$var wire 1 " clk $end
$var wire 1 ! halt $end
$var wire 1 A isDIV_EX $end
$var wire 1 B isMUL_EX $end
$var wire 1 C load_use_hazard $end
$var wire 1 D long_latency_stall_ID $end
$var wire 1 E long_latency_stall_IF $end
$var wire 1 F memory_alignment_error_MEM $end
$var wire 5 G rd_WB [4:0] $end
$var wire 1 ( rst $end
$var wire 1 H start_new_latency $end
$var wire 1 I valid_op_ID $end
$var wire 32 J wb_load_data [31:0] $end
$var wire 16 K wb_hword [15:0] $end
$var wire 8 L wb_byte [7:0] $end
$var wire 1 M stall_EX $end
$var wire 7 N opcode [6:0] $end
$var wire 32 O imm_u_type_shifted [31:0] $end
$var wire 32 P imm_s_type_sext [31:0] $end
$var wire 12 Q imm_s_raw [11:0] $end
$var wire 32 R imm_j_type_offset [31:0] $end
$var wire 32 S imm_i_type_sext [31:0] $end
$var wire 12 T imm_i_raw [11:0] $end
$var wire 32 U imm_b_type [31:0] $end
$var wire 7 V funct7 [6:0] $end
$var wire 3 W funct3 [2:0] $end
$var wire 1 X bad_op_WB $end
$var wire 1 Y bad_op_MEM $end
$var wire 1 Z bad_op_EX $end
$var wire 2 [ Size_ID [1:0] $end
$var wire 2 \ Size_EX [1:0] $end
$var wire 5 ] Shamt [4:0] $end
$var wire 2 ^ SR_control [1:0] $end
$var wire 5 _ Rsrc2 [4:0] $end
$var wire 5 ` Rsrc1 [4:0] $end
$var wire 1 a RegWrite_WB $end
$var wire 1 b RegWrite_MEM $end
$var wire 1 c RegWrite_EX $end
$var wire 5 d Rdst [4:0] $end
$var wire 32 e Rdata2 [31:0] $end
$var wire 32 f Rdata1 [31:0] $end
$var wire 32 g RWrdata_next [31:0] $end
$var wire 32 h PC_next [31:0] $end
$var wire 32 i PC_Plus_4 [31:0] $end
$var wire 32 j PC [31:0] $end
$var wire 1 k MemWrite_MEM $end
$var wire 1 l MemWrite_ID $end
$var wire 1 m MemWrite_EX $end
$var wire 1 n MemToReg_WB $end
$var wire 1 o MemToReg_MEM $end
$var wire 1 p MemToReg_ID $end
$var wire 1 q MemToReg_EX $end
$var wire 1 r MemRead_MEM $end
$var wire 1 s MemRead_ID $end
$var wire 1 t MemRead_EX $end
$var wire 5 u MEMWB_rd [4:0] $end
$var wire 3 v MEMWB_funct3 [2:0] $end
$var wire 8 w MEMWB_ctrl_out [7:0] $end
$var wire 8 x MEMWB_ctrl_in [7:0] $end
$var wire 32 y MEMWB_addr [31:0] $end
$var wire 32 z MEMWB_DataWord [31:0] $end
$var wire 32 { MEMWB_ALU_out [31:0] $end
$var wire 1 | IsJalr_WB $end
$var wire 1 } IsJalr_MEM $end
$var wire 1 ~ IsJalr_ID $end
$var wire 1 !" IsJalr_EX $end
$var wire 1 "" IsJal_WB $end
$var wire 1 #" IsJal_MEM $end
$var wire 1 $" IsJal_ID $end
$var wire 1 %" IsJal_EX $end
$var wire 1 &" IsBranch_ID $end
$var wire 1 '" IsBranch_EX $end
$var wire 32 (" InstWord [31:0] $end
$var wire 32 )" IFID_PC [31:0] $end
$var wire 32 *" IFID_IR_in [31:0] $end
$var wire 32 +" IFID_IR [31:0] $end
$var wire 5 ," IDEX_rs2 [4:0] $end
$var wire 5 -" IDEX_rs1 [4:0] $end
$var wire 5 ." IDEX_rd [4:0] $end
$var wire 7 /" IDEX_opcode [6:0] $end
$var wire 32 0" IDEX_imm_u [31:0] $end
$var wire 32 1" IDEX_imm_s [31:0] $end
$var wire 32 2" IDEX_imm_j [31:0] $end
$var wire 32 3" IDEX_imm_i [31:0] $end
$var wire 32 4" IDEX_imm_b [31:0] $end
$var wire 7 5" IDEX_funct7 [6:0] $end
$var wire 3 6" IDEX_funct3 [2:0] $end
$var wire 13 7" IDEX_ctrl_out [12:0] $end
$var wire 13 8" IDEX_ctrl_in [12:0] $end
$var wire 13 9" IDEX_ctrl_Din [12:0] $end
$var wire 5 :" IDEX_Shamt [4:0] $end
$var wire 2 ;" IDEX_SR_control [1:0] $end
$var wire 32 <" IDEX_R2 [31:0] $end
$var wire 32 =" IDEX_R1 [31:0] $end
$var wire 32 >" IDEX_PC [31:0] $end
$var wire 1 ?" EX_useImmS $end
$var wire 32 @" EX_result [31:0] $end
$var wire 32 A" EX_opB_raw [31:0] $end
$var wire 5 B" EX_latency [4:0] $end
$var wire 32 C" EX_jal_target [31:0] $end
$var wire 32 D" EX_eu_out [31:0] $end
$var wire 7 E" EX_eu_funct7_in [6:0] $end
$var wire 3 F" EX_eu_funct3_in [2:0] $end
$var wire 1 G" EX_busy_zero $end
$var wire 5 H" EX_busy_next [4:0] $end
$var wire 5 I" EX_busy_dec [4:0] $end
$var wire 5 J" EX_busy [4:0] $end
$var wire 32 K" EX_branch_target [31:0] $end
$var wire 32 L" EX_R2_fwd [31:0] $end
$var wire 32 M" EX_R1_fwd [31:0] $end
$var wire 32 N" EX_PC_target [31:0] $end
$var wire 32 O" EX_PC_plus4 [31:0] $end
$var wire 32 P" EXMEM_store_data [31:0] $end
$var wire 5 Q" EXMEM_rd [4:0] $end
$var wire 3 R" EXMEM_funct3 [2:0] $end
$var wire 12 S" EXMEM_ctrl_out [11:0] $end
$var wire 12 T" EXMEM_ctrl_in [11:0] $end
$var wire 32 U" EXMEM_addr [31:0] $end
$var wire 2 V" EXMEM_Size [1:0] $end
$var wire 32 W" EXMEM_ALU_out [31:0] $end
$var wire 32 X" DataWord [31:0] $end
$var wire 3 Y" BranchFunct3_EX [2:0] $end
$var parameter 40 Z" EXMEM_CTRL_W $end
$var parameter 41 [" IDEX_CTRL_W $end
$var parameter 37 \" MEMWB_CTRL_W $end
$scope module EU $end
$var wire 7 ]" auxFunc [6:0] $end
$var wire 3 ^" func [2:0] $end
$var wire 32 _" opA [31:0] $end
$var wire 32 `" opB [31:0] $end
$var wire 32 a" sA [31:0] $end
$var wire 32 b" sB [31:0] $end
$var wire 32 c" uA [31:0] $end
$var wire 32 d" uB [31:0] $end
$var wire 64 e" zext_uB [63:0] $end
$var wire 2 f" sr_C [1:0] $end
$var wire 64 g" sextsA [63:0] $end
$var wire 32 h" rem_r_unsigned [31:0] $end
$var wire 32 i" rem_r_signed [31:0] $end
$var wire 32 j" out [31:0] $end
$var wire 5 k" opBS [4:0] $end
$var wire 64 l" mul_uu [63:0] $end
$var wire 64 m" mul_su [63:0] $end
$var wire 64 n" mul_ss [63:0] $end
$var wire 32 o" div_q_unsigned [31:0] $end
$var wire 32 p" div_q_signed [31:0] $end
$var wire 1 q" div_by_zero $end
$var parameter 7 r" FUNC_0 $end
$var parameter 7 s" FUNC_1 $end
$var parameter 7 t" FUNC_2 $end
$var parameter 7 u" FUNC_3 $end
$var parameter 3 v" OP_ADD $end
$var parameter 3 w" OP_AND $end
$var parameter 3 x" OP_DIV $end
$var parameter 3 y" OP_DIVU $end
$var parameter 3 z" OP_MUL $end
$var parameter 3 {" OP_MULH $end
$var parameter 3 |" OP_MULHSU $end
$var parameter 3 }" OP_MULHU $end
$var parameter 3 ~" OP_OR $end
$var parameter 3 !# OP_REM $end
$var parameter 3 "# OP_REMU $end
$var parameter 3 ## OP_SLL $end
$var parameter 3 $# OP_SLT $end
$var parameter 3 %# OP_SLTU $end
$var parameter 3 &# OP_SRA $end
$var parameter 3 '# OP_SRL $end
$var parameter 3 (# OP_SUB $end
$var parameter 3 )# OP_XOR $end
$upscope $end
$scope module EXMEM_ADDR_REG $end
$var wire 1 " CLK $end
$var wire 32 *# Din [31:0] $end
$var wire 1 ( RST $end
$var wire 1 - WE $end
$var parameter 32 +# init $end
$var parameter 32 ,# width $end
$var reg 32 -# Qout [31:0] $end
$upscope $end
$scope module EXMEM_ALU_REG $end
$var wire 1 " CLK $end
$var wire 32 .# Din [31:0] $end
$var wire 1 ( RST $end
$var wire 1 - WE $end
$var parameter 32 /# init $end
$var parameter 32 0# width $end
$var reg 32 1# Qout [31:0] $end
$upscope $end
$scope module EXMEM_CTRL_REG $end
$var wire 1 " CLK $end
$var wire 12 2# Din [11:0] $end
$var wire 1 ( RST $end
$var wire 1 - WE $end
$var parameter 32 3# init $end
$var parameter 40 4# width $end
$var reg 12 5# Qout [11:0] $end
$upscope $end
$scope module EXMEM_RD_REG $end
$var wire 1 " CLK $end
$var wire 1 ( RST $end
$var wire 1 - WE $end
$var wire 5 6# Din [4:0] $end
$var parameter 32 7# init $end
$var parameter 32 8# width $end
$var reg 5 9# Qout [4:0] $end
$upscope $end
$scope module EXMEM_STORE_REG $end
$var wire 1 " CLK $end
$var wire 32 :# Din [31:0] $end
$var wire 1 ( RST $end
$var wire 1 - WE $end
$var parameter 32 ;# init $end
$var parameter 32 <# width $end
$var reg 32 =# Qout [31:0] $end
$upscope $end
$scope module EX_busy_REG $end
$var wire 1 " CLK $end
$var wire 5 ># Din [4:0] $end
$var wire 1 ( RST $end
$var wire 1 ?# WE $end
$var parameter 32 @# init $end
$var parameter 32 A# width $end
$var reg 5 B# Qout [4:0] $end
$upscope $end
$scope module IDEX_CTRL_REG $end
$var wire 1 " CLK $end
$var wire 13 C# Din [12:0] $end
$var wire 1 ( RST $end
$var wire 1 3 WE $end
$var parameter 32 D# init $end
$var parameter 41 E# width $end
$var reg 13 F# Qout [12:0] $end
$upscope $end
$scope module IDEX_IMM_B_REG $end
$var wire 1 " CLK $end
$var wire 32 G# Din [31:0] $end
$var wire 1 ( RST $end
$var wire 1 3 WE $end
$var parameter 32 H# init $end
$var parameter 32 I# width $end
$var reg 32 J# Qout [31:0] $end
$upscope $end
$scope module IDEX_IMM_I_REG $end
$var wire 1 " CLK $end
$var wire 32 K# Din [31:0] $end
$var wire 1 ( RST $end
$var wire 1 3 WE $end
$var parameter 32 L# init $end
$var parameter 32 M# width $end
$var reg 32 N# Qout [31:0] $end
$upscope $end
$scope module IDEX_IMM_J_REG $end
$var wire 1 " CLK $end
$var wire 32 O# Din [31:0] $end
$var wire 1 ( RST $end
$var wire 1 3 WE $end
$var parameter 32 P# init $end
$var parameter 32 Q# width $end
$var reg 32 R# Qout [31:0] $end
$upscope $end
$scope module IDEX_IMM_S_REG $end
$var wire 1 " CLK $end
$var wire 32 S# Din [31:0] $end
$var wire 1 ( RST $end
$var wire 1 3 WE $end
$var parameter 32 T# init $end
$var parameter 32 U# width $end
$var reg 32 V# Qout [31:0] $end
$upscope $end
$scope module IDEX_IMM_U_REG $end
$var wire 1 " CLK $end
$var wire 32 W# Din [31:0] $end
$var wire 1 ( RST $end
$var wire 1 3 WE $end
$var parameter 32 X# init $end
$var parameter 32 Y# width $end
$var reg 32 Z# Qout [31:0] $end
$upscope $end
$scope module IDEX_OPCODE_REG $end
$var wire 1 " CLK $end
$var wire 7 [# Din [6:0] $end
$var wire 1 ( RST $end
$var wire 1 3 WE $end
$var parameter 32 \# init $end
$var parameter 32 ]# width $end
$var reg 7 ^# Qout [6:0] $end
$upscope $end
$scope module IDEX_PC_REG $end
$var wire 1 " CLK $end
$var wire 32 _# Din [31:0] $end
$var wire 1 ( RST $end
$var wire 1 3 WE $end
$var parameter 32 `# init $end
$var parameter 32 a# width $end
$var reg 32 b# Qout [31:0] $end
$upscope $end
$scope module IDEX_R1_REG $end
$var wire 1 " CLK $end
$var wire 1 ( RST $end
$var wire 1 3 WE $end
$var wire 32 c# Din [31:0] $end
$var parameter 32 d# init $end
$var parameter 32 e# width $end
$var reg 32 f# Qout [31:0] $end
$upscope $end
$scope module IDEX_R2_REG $end
$var wire 1 " CLK $end
$var wire 1 ( RST $end
$var wire 1 3 WE $end
$var wire 32 g# Din [31:0] $end
$var parameter 32 h# init $end
$var parameter 32 i# width $end
$var reg 32 j# Qout [31:0] $end
$upscope $end
$scope module IDEX_RD_REG $end
$var wire 1 " CLK $end
$var wire 5 k# Din [4:0] $end
$var wire 1 ( RST $end
$var wire 1 3 WE $end
$var parameter 32 l# init $end
$var parameter 32 m# width $end
$var reg 5 n# Qout [4:0] $end
$upscope $end
$scope module IDEX_RS1_REG $end
$var wire 1 " CLK $end
$var wire 5 o# Din [4:0] $end
$var wire 1 ( RST $end
$var wire 1 3 WE $end
$var parameter 32 p# init $end
$var parameter 32 q# width $end
$var reg 5 r# Qout [4:0] $end
$upscope $end
$scope module IDEX_RS2_REG $end
$var wire 1 " CLK $end
$var wire 5 s# Din [4:0] $end
$var wire 1 ( RST $end
$var wire 1 3 WE $end
$var parameter 32 t# init $end
$var parameter 32 u# width $end
$var reg 5 v# Qout [4:0] $end
$upscope $end
$scope module IDEX_SRC_REG $end
$var wire 1 " CLK $end
$var wire 2 w# Din [1:0] $end
$var wire 1 ( RST $end
$var wire 1 3 WE $end
$var parameter 32 x# init $end
$var parameter 32 y# width $end
$var reg 2 z# Qout [1:0] $end
$upscope $end
$scope module IDEX_Shamt_REG $end
$var wire 1 " CLK $end
$var wire 5 {# Din [4:0] $end
$var wire 1 ( RST $end
$var wire 1 3 WE $end
$var parameter 32 |# init $end
$var parameter 32 }# width $end
$var reg 5 ~# Qout [4:0] $end
$upscope $end
$scope module IDEX_f3_REG $end
$var wire 1 " CLK $end
$var wire 3 !$ Din [2:0] $end
$var wire 1 ( RST $end
$var wire 1 3 WE $end
$var parameter 32 "$ init $end
$var parameter 32 #$ width $end
$var reg 3 $$ Qout [2:0] $end
$upscope $end
$scope module IDEX_f7_REG $end
$var wire 1 " CLK $end
$var wire 7 %$ Din [6:0] $end
$var wire 1 ( RST $end
$var wire 1 3 WE $end
$var parameter 32 &$ init $end
$var parameter 32 '$ width $end
$var reg 7 ($ Qout [6:0] $end
$upscope $end
$scope module IFID_IR_REG $end
$var wire 1 " CLK $end
$var wire 32 )$ Din [31:0] $end
$var wire 1 ( RST $end
$var wire 1 7 WE $end
$var parameter 32 *$ init $end
$var parameter 32 +$ width $end
$var reg 32 ,$ Qout [31:0] $end
$upscope $end
$scope module IFID_PC_REG $end
$var wire 1 " CLK $end
$var wire 1 ( RST $end
$var wire 1 7 WE $end
$var wire 32 -$ Din [31:0] $end
$var parameter 32 .$ init $end
$var parameter 32 /$ width $end
$var reg 32 0$ Qout [31:0] $end
$upscope $end
$scope module MEM $end
$var wire 1 " CLK $end
$var wire 32 1$ DataAddr [31:0] $end
$var wire 32 2$ DataAddrH [31:0] $end
$var wire 32 3$ DataAddrW [31:0] $end
$var wire 32 4$ DataIn [31:0] $end
$var wire 2 5$ DataSize [1:0] $end
$var wire 32 6$ InstAddrW [31:0] $end
$var wire 1 : WE $end
$var wire 32 7$ InstOut [31:0] $end
$var wire 32 8$ InstAddr [31:0] $end
$var wire 32 9$ DataOut [31:0] $end
$upscope $end
$scope module MEMWB_ADDR_REG $end
$var wire 1 " CLK $end
$var wire 32 :$ Din [31:0] $end
$var wire 1 ( RST $end
$var wire 1 ;$ WE $end
$var parameter 32 <$ init $end
$var parameter 32 =$ width $end
$var reg 32 >$ Qout [31:0] $end
$upscope $end
$scope module MEMWB_ALU_REG $end
$var wire 1 " CLK $end
$var wire 32 ?$ Din [31:0] $end
$var wire 1 ( RST $end
$var wire 1 @$ WE $end
$var parameter 32 A$ init $end
$var parameter 32 B$ width $end
$var reg 32 C$ Qout [31:0] $end
$upscope $end
$scope module MEMWB_CTRL_REG $end
$var wire 1 " CLK $end
$var wire 8 D$ Din [7:0] $end
$var wire 1 ( RST $end
$var wire 1 E$ WE $end
$var parameter 32 F$ init $end
$var parameter 37 G$ width $end
$var reg 8 H$ Qout [7:0] $end
$upscope $end
$scope module MEMWB_MEM_REG $end
$var wire 1 " CLK $end
$var wire 32 I$ Din [31:0] $end
$var wire 1 ( RST $end
$var wire 1 J$ WE $end
$var parameter 32 K$ init $end
$var parameter 32 L$ width $end
$var reg 32 M$ Qout [31:0] $end
$upscope $end
$scope module MEMWB_RD_REG $end
$var wire 1 " CLK $end
$var wire 5 N$ Din [4:0] $end
$var wire 1 ( RST $end
$var wire 1 O$ WE $end
$var parameter 32 P$ init $end
$var parameter 32 Q$ width $end
$var reg 5 R$ Qout [4:0] $end
$upscope $end
$scope module PC_REG $end
$var wire 1 " CLK $end
$var wire 32 S$ Din [31:0] $end
$var wire 1 ( RST $end
$var wire 1 ; WE $end
$var parameter 32 T$ init $end
$var parameter 32 U$ width $end
$var reg 32 V$ Qout [31:0] $end
$upscope $end
$scope module RF $end
$var wire 5 W$ AddrA [4:0] $end
$var wire 5 X$ AddrB [4:0] $end
$var wire 5 Y$ AddrW [4:0] $end
$var wire 1 " CLK $end
$var wire 32 Z$ DataInW [31:0] $end
$var wire 1 < WenW $end
$var wire 32 [$ DataOutB [31:0] $end
$var wire 32 \$ DataOutA [31:0] $end
$upscope $end
$upscope $end
$scope begin $unm_blk_3 $end
$var integer 32 ]$ timeout_cycles [31:0] $end
$upscope $end
$upscope $end
$enddefinitions $end
$comment Show the parameter values. $end
$dumpall
b100000 U$
b0 T$
b101 Q$
b0 P$
b100000 L$
b0 K$
b1000 G$
b0 F$
b100000 B$
b0 A$
b100000 =$
b0 <$
b100000 /$
b0 .$
b100000 +$
b10011 *$
b111 '$
b0 &$
b11 #$
b0 "$
b101 }#
b0 |#
b10 y#
b0 x#
b101 u#
b0 t#
b101 q#
b0 p#
b101 m#
b0 l#
b100000 i#
b0 h#
b100000 e#
b0 d#
b100000 a#
b0 `#
b111 ]#
b0 \#
b100000 Y#
b0 X#
b100000 U#
b0 T#
b100000 Q#
b0 P#
b100000 M#
b0 L#
b100000 I#
b0 H#
b1101 E#
b0 D#
b101 A#
b0 @#
b100000 <#
b0 ;#
b101 8#
b0 7#
b1100 4#
b0 3#
b100000 0#
b0 /#
b100000 ,#
b0 +#
b100 )#
b0 (#
b101 '#
b101 &#
b11 %#
b10 $#
b1 ##
b111 "#
b110 !#
b110 ~"
b11 }"
b10 |"
b1 {"
b0 z"
b101 y"
b100 x"
b111 w"
b0 v"
b110000 u"
b1 t"
b100000 s"
b0 r"
b1000 \"
b1101 ["
b1100 Z"
$end
#0
$dumpvars
b1001110001000 ]$
b0 \$
b0 [$
b0 Z$
b0 Y$
b0 X$
b0 W$
b0 V$
b100 S$
b0 R$
1O$
b0 N$
b0 M$
1J$
bx I$
b0 H$
1E$
b0 D$
b0 C$
1@$
b0 ?$
b0 >$
1;$
b0 :$
bx 9$
b0 8$
bx 7$
b0 6$
b0 5$
b0 4$
b0 3$
b0 2$
b0 1$
b0 0$
b0 -$
b10011 ,$
bx )$
b0 ($
b0 %$
b0 $$
b0 !$
b0 ~#
b0 {#
b0 z#
b0 w#
b0 v#
b0 s#
b0 r#
b0 o#
b0 n#
b0 k#
b0 j#
b0 g#
b0 f#
b0 c#
b0 b#
b0 _#
b0 ^#
b10011 [#
b0 Z#
b0 W#
b0 V#
b0 S#
b0 R#
b0 O#
b0 N#
b0 K#
b0 J#
b0 G#
b0 F#
b1000000000000 C#
b0 B#
1?#
b0 >#
b0 =#
b0 :#
b0 9#
b0 6#
b0 5#
b0 2#
b0 1#
b0 .#
b0 -#
b0 *#
1q"
b11111111111111111111111111111111 p"
b11111111111111111111111111111111 o"
b0 n"
b0 m"
b0 l"
b0 k"
b0 j"
b0 i"
b0 h"
b0 g"
b0 f"
b0 e"
b0 d"
b0 c"
b0 b"
b0 a"
b0 `"
b0 _"
b0 ^"
b0 ]"
b0 Y"
bx X"
b0 W"
b0 V"
b0 U"
b0 T"
b0 S"
b0 R"
b0 Q"
b0 P"
b100 O"
b0 N"
b0 M"
b0 L"
b0 K"
b0 J"
b11111 I"
b0 H"
1G"
b0 F"
b0 E"
b0 D"
b0 C"
b1 B"
b0 A"
b0 @"
0?"
b0 >"
b0 ="
b0 <"
b0 ;"
b0 :"
b1000000000000 9"
b1000000000000 8"
b0 7"
b0 6"
b0 5"
b0 4"
b0 3"
b0 2"
b0 1"
b0 0"
b0 /"
b0 ."
b0 -"
b0 ,"
b10011 +"
bx *"
b0 )"
bx ("
0'"
0&"
0%"
0$"
0#"
0""
0!"
0~
0}
0|
b0 {
b0 z
b0 y
b0 x
b0 w
b0 v
b0 u
0t
0s
0r
0q
0p
0o
0n
0m
0l
0k
b0 j
b100 i
b100 h
b0 g
b0 f
b0 e
b0 d
0c
0b
0a
b0 `
b0 _
b0 ^
b0 ]
b0 \
b0 [
0Z
0Y
0X
b0 W
b0 V
b0 U
b0 T
b0 S
b0 R
b0 Q
b0 P
b0 O
b10011 N
0M
b0 L
b0 K
b0 J
1I
0H
b0 G
0F
0E
0D
0C
0B
0A
0@
b0 ?
1>
b0 =
0<
1;
0:
b0 9
08
17
b0 6
b10011 5
04
13
02
b0 1
b0 0
0/
0.
1-
b0 ,
b0 +
b0 *
b1101111011101010111010001110000011101010111010001110011001011110110110001110101011010010010110000101110011101100110001101100100 )
1(
b1101111011101010111010001110000011101010111010001110011001011110110110001110101011010010010110001011111011100100110010101100111011100110101111101101111011101010111010000101110011010000110010101111000 '
b1110100011001010111001101110100011100110010111101101100011101010110100100101100010111110111001001100101011001110111001101011111011010010110111000101110011010000110010101111000 &
b11011110111010101110100011100000111010101110100011100110010111101101100011101010110100100101100010111110110110101100101011011010101111101101111011101010111010000101110011010000110010101111000 %
b11101000110010101110011011101000111001100101111011011000111010101101001001011000101111101101101011001010110110101011111011010010110111000101110011010000110010101111000 $
0#
0"
0!
$end
#5
x@
bx J
b110000 E"
b110000 ]"
x>
bx [
xI
bx K
bx L
12
bx f
bx c#
bx \$
bx e
bx g#
bx [$
bx 9"
bx C#
b100000000000 T"
b100000000000 2#
1c
xl
xs
xp
x&"
x$"
x~
bx N
bx [#
bx d
bx k#
bx `
bx o#
bx W$
bx _
bx s#
bx X$
bx 8"
bx +
bx W
bx !$
bx V
bx %$
bx ]
bx {#
bx ^
bx w#
bx S
bx K#
bx T
bx P
bx S#
bx Q
bx0 U
bx0 G#
bx000000000000 O
bx000000000000 W#
bx0 R
bx0 O#
b100 6$
b1000 h
b1000 S$
bx z
bx M$
b1000000000000 7"
b1000000000000 F#
b10011 /"
b10011 ^#
bx 5
bx +"
bx ,$
b1000 i
b100 j
b100 -$
b100 8$
b100 V$
b1 *
1"
#10
0"
#15
x7
x;
bx H"
bx >#
x4
x8
xH
bx F"
bx ^"
bx D"
bx j"
bx *#
x/
bx g"
bx a"
bx c"
bx 1
bx _"
bx M"
bx L"
bx :#
bx p"
bx o"
bx i"
bx h"
xC
bx0x0x B"
bx E"
bx ]"
x.
bx N"
b1000 6$
bx h
bx S$
bx0 0
bx m"
b0xxxxxxxxxxxxxxxxxxxxxxxxxxxxxxxx e"
bx n"
bx b"
bx l"
bx d"
xq"
bx A"
bx `"
xA
xB
bx @"
bx .#
x2
xc
xm
xt
xq
x'"
x%"
x!"
bx \
bx Y"
xZ
b10000000 x
b10000000 D$
1b
b1100 i
b1000 j
b1000 -$
b1000 8$
b1000 V$
b100 6
b100 _#
b100 )"
b100 0$
bx ="
bx f#
bx <"
bx j#
bx 3"
bx N#
bx 1"
bx V#
bx K"
bx0 4"
bx0 J#
bx000000000000 0"
bx000000000000 Z#
bx C"
bx0 2"
bx0 R#
bx -"
bx r#
bx ,"
bx v#
bx ."
bx 6#
bx n#
bx T"
bx 2#
bx 6"
bx $$
bx 5"
bx ($
x?"
bx /"
bx ^#
bx :"
bx k"
bx ~#
bx ;"
bx f"
bx z#
bx 7"
bx F#
b100000000000 S"
b100000000000 5#
b10 *
1"
#20
0"
#25
x!
xF
1<
1a
x3
x-
xb
x:
xk
xr
xo
x#"
x}
bx 9
bx 5$
bx V"
bx R"
bx x
bx D$
xY
bx0 2$
bx00 3$
b10000000 w
b10000000 H$
xE
xD
xM
bx I"
xG"
bx J"
bx B#
bx S"
bx 5#
bx Q"
bx 9#
bx N$
bx ,
bx 1$
bx U"
bx -#
bx :$
bx ?
bx 4$
bx P"
bx =#
bx W"
bx 1#
bx ?$
b1000 O"
b100 >"
b100 b#
b11 *
1"
#30
0"
#35
bx =
bx Z$
bx g
x<
xa
xn
x""
x|
bx v
xX
bx {
bx C$
bx y
bx >$
bx G
bx Y$
bx u
bx R$
bx w
bx H$
b100 *
1"
#40
0"
#45
b101 *
1"
#50
0"
#55
b110 *
1"
#60
0"
#65
b111 *
1"
#70
0"
#75
b1000 *
1"
#80
0"
#85
b1001 *
1"
#90
0"
#95
b1010 *
1"
#100
0"
#105
b1011 *
1"
#110
0"
#115
b1100 *
1"
#120
0"
#125
b1101 *
1"
#130
0"
#135
b1110 *
1"
#140
0"
#145
b1111 *
1"
#150
0"
#155
b10000 *
1"
#160
0"
#165
b10001 *
1"
#170
0"
#175
b10010 *
1"
#180
0"
#185
b10011 *
1"
#190
0"
#195
b10100 *
1"
#200
0"
#205
b10101 *
1"
#210
0"
#215
b10110 *
1"
#220
0"
#225
b10111 *
1"
#230
0"
#235
b11000 *
1"
#240
0"
#245
b11001 *
1"
#250
0"
#255
b11010 *
1"
#260
0"
#265
b11011 *
1"
#270
0"
#275
b11100 *
1"
#280
0"
#285
b11101 *
1"
#290
0"
#295
b11110 *
1"
#300
0"
#305
b11111 *
1"
#310
0"
#315
b100000 *
1"
#320
0"
#325
b100001 *
1"
#330
0"
#335
b100010 *
1"
#340
0"
#345
b100011 *
1"
#350
0"
#355
b100100 *
1"
#360
0"
#365
b100101 *
1"
#370
0"
#375
b100110 *
1"
#380
0"
#385
b100111 *
1"
#390
0"
#395
b101000 *
1"
#400
0"
#405
b101001 *
1"
#410
0"
#415
b101010 *
1"
#420
0"
#425
b101011 *
1"
#430
0"
#435
b101100 *
1"
#440
0"
#445
b101101 *
1"
#450
0"
#455
b101110 *
1"
#460
0"
#465
b101111 *
1"
#470
0"
#475
b110000 *
1"
#480
0"
#485
b110001 *
1"
#490
0"
#495
b110010 *
1"
#500
0"
#505
b110011 *
1"
#510
0"
#515
b110100 *
1"
#520
0"
#525
b110101 *
1"
#530
0"
#535
b110110 *
1"
#540
0"
#545
b110111 *
1"
#550
0"
#555
b111000 *
1"
#560
0"
#565
b111001 *
1"
#570
0"
#575
b111010 *
1"
#580
0"
#585
b111011 *
1"
#590
0"
#595
b111100 *
1"
#600
0"
#605
b111101 *
1"
#610
0"
#615
b111110 *
1"
#620
0"
#625
b111111 *
1"
#630
0"
#635
b1000000 *
1"
#640
0"
#645
b1000001 *
1"
#650
0"
#655
b1000010 *
1"
#660
0"
#665
b1000011 *
1"
#670
0"
#675
b1000100 *
1"
#680
0"
#685
b1000101 *
1"
#690
0"
#695
b1000110 *
1"
#700
0"
#705
b1000111 *
1"
#710
0"
#715
b1001000 *
1"
#720
0"
#725
b1001001 *
1"
#730
0"
#735
b1001010 *
1"
#740
0"
#745
b1001011 *
1"
#750
0"
#755
b1001100 *
1"
#760
0"
#765
b1001101 *
1"
#770
0"
#775
b1001110 *
1"
#780
0"
#785
b1001111 *
1"
#790
0"
#795
b1010000 *
1"
#800
0"
#805
b1010001 *
1"
#810
0"
#815
b1010010 *
1"
#820
0"
#825
b1010011 *
1"
#830
0"
#835
b1010100 *
1"
#840
0"
#845
b1010101 *
1"
#850
0"
#855
b1010110 *
1"
#860
0"
#865
b1010111 *
1"
#870
0"
#875
b1011000 *
1"
#880
0"
#885
b1011001 *
1"
#890
0"
#895
b1011010 *
1"
#900
0"
#905
b1011011 *
1"
#910
0"
#915
b1011100 *
1"
#920
0"
#925
b1011101 *
1"
#930
0"
#935
b1011110 *
1"
#940
0"
#945
b1011111 *
1"
#950
0"
#955
b1100000 *
1"
#960
0"
#965
b1100001 *
1"
#970
0"
#975
b1100010 *
1"
#980
0"
#985
b1100011 *
1"
#990
0"
#995
b1100100 *
1"
#1000
0"
#1005
b1100101 *
1"
#1010
0"
#1015
b1100110 *
1"
#1020
0"
#1025
b1100111 *
1"
#1030
0"
#1035
b1101000 *
1"
#1040
0"
#1045
b1101001 *
1"
#1050
0"
#1055
b1101010 *
1"
#1060
0"
#1065
b1101011 *
1"
#1070
0"
#1075
b1101100 *
1"
#1080
0"
#1085
b1101101 *
1"
#1090
0"
#1095
b1101110 *
1"
#1100
0"
#1105
b1101111 *
1"
#1110
0"
#1115
b1110000 *
1"
#1120
0"
#1125
b1110001 *
1"
#1130
0"
#1135
b1110010 *
1"
#1140
0"
#1145
b1110011 *
1"
#1150
0"
#1155
b1110100 *
1"
#1160
0"
#1165
b1110101 *
1"
#1170
0"
#1175
b1110110 *
1"
#1180
0"
#1185
b1110111 *
1"
#1190
0"
#1195
b1111000 *
1"
#1200
0"
